\relax 
\providecommand\hyper@newdestlabel[2]{}
\providecommand*\new@tpo@label[2]{}
\catcode `"\active 
\providecommand\HyperFirstAtBeginDocument{\AtBeginDocument}
\HyperFirstAtBeginDocument{\ifx\hyper@anchor\@undefined
\global\let\oldcontentsline\contentsline
\gdef\contentsline#1#2#3#4{\oldcontentsline{#1}{#2}{#3}}
\global\let\oldnewlabel\newlabel
\gdef\newlabel#1#2{\newlabelxx{#1}#2}
\gdef\newlabelxx#1#2#3#4#5#6{\oldnewlabel{#1}{{#2}{#3}}}
\AtEndDocument{\ifx\hyper@anchor\@undefined
\let\contentsline\oldcontentsline
\let\newlabel\oldnewlabel
\fi}
\fi}
\global\let\hyper@last\relax 
\gdef\HyperFirstAtBeginDocument#1{#1}
\providecommand\HyField@AuxAddToFields[1]{}
\providecommand\HyField@AuxAddToCoFields[2]{}
\providecommand\BKM@entry[2]{}
\BKM@entry{id=1,dest={73756273656374696F6E2E302E31},srcline={63}}{50616B657465}
\BKM@entry{id=2,dest={73756273656374696F6E2E302E32},srcline={80}}{45696E68656974656E}
\babel@aux{ngerman}{}
\@writefile{toc}{\contentsline {subsection}{\numberline {1}Pakete}{1}{subsection.0.1}\protected@file@percent }
\@writefile{toc}{\contentsline {subsection}{\numberline {2}Einheiten}{1}{subsection.0.2}\protected@file@percent }
\BKM@entry{id=3,dest={73756273656374696F6E2E302E33},srcline={98}}{4E6575652042656665686C65}
\BKM@entry{id=4,dest={73756273656374696F6E2E302E34},srcline={105}}{446966666572656E7469656C6C65732044656C7461205C323134645C323135}
\BKM@entry{id=5,dest={73756273656374696F6E2E302E35},srcline={115}}{56656B746F72656E20756E64204D617472697A656E}
\@writefile{toc}{\contentsline {subsection}{\numberline {3}Neue Befehle}{2}{subsection.0.3}\protected@file@percent }
\@writefile{toc}{\contentsline {subsection}{\numberline {4}Differentielles Delta \IeC {\quotedblbase }$\mathrm  {d}$\IeC {\textquotedblleft }}{2}{subsection.0.4}\protected@file@percent }
\@writefile{toc}{\contentsline {subsection}{\numberline {5}Vektoren und Matrizen}{2}{subsection.0.5}\protected@file@percent }
\BKM@entry{id=6,dest={73756273656374696F6E2E302E36},srcline={132}}{4B6F6D706C657865205A61686C656E}
\BKM@entry{id=7,dest={73756273656374696F6E2E302E37},srcline={145}}{4D656E67656E}
\BKM@entry{id=8,dest={73756273656374696F6E2E302E38},srcline={162}}{46756E6B74696F6E656E}
\@writefile{toc}{\contentsline {subsection}{\numberline {6}Komplexe Zahlen}{3}{subsection.0.6}\protected@file@percent }
\@writefile{toc}{\contentsline {subsection}{\numberline {7}Mengen}{3}{subsection.0.7}\protected@file@percent }
\BKM@entry{id=9,dest={73756273656374696F6E2E302E39},srcline={178}}{53746F6368617374696B}
\BKM@entry{id=10,dest={73756273656374696F6E2E302E3130},srcline={189}}{5370656B7472616C616E616C797365}
\BKM@entry{id=11,dest={73756273656374696F6E2E302E3131},srcline={199}}{536F6E737469676573}
\@writefile{toc}{\contentsline {subsection}{\numberline {8}Funktionen}{4}{subsection.0.8}\protected@file@percent }
\@writefile{toc}{\contentsline {subsection}{\numberline {9}Stochastik}{4}{subsection.0.9}\protected@file@percent }
\@writefile{toc}{\contentsline {subsection}{\numberline {10}Spektralanalyse}{4}{subsection.0.10}\protected@file@percent }
\@writefile{toc}{\contentsline {subsection}{\numberline {11}Sonstiges}{4}{subsection.0.11}\protected@file@percent }
