\boolfalse {citerequest}\boolfalse {citetracker}\boolfalse {pagetracker}\boolfalse {backtracker}\relax 
\babel@toc {ngerman}{}
\babel@toc {ngerman}{}
\defcounter {refsection}{0}\relax 
\contentsline {section}{\numberline {1}Aufgabe 1}{1}{section.1}% 
\defcounter {refsection}{0}\relax 
\contentsline {subsection}{\numberline {1.1}A)}{1}{subsection.1.1}% 
\defcounter {refsection}{0}\relax 
\contentsline {section}{\numberline {2}Aufgabe 2}{1}{section.2}% 
\defcounter {refsection}{0}\relax 
\contentsline {subsection}{\numberline {2.1}A)}{1}{subsection.2.1}% 
\defcounter {refsection}{0}\relax 
\contentsline {subsection}{\numberline {2.2}B)}{1}{subsection.2.2}% 
\defcounter {refsection}{0}\relax 
\contentsline {section}{\numberline {3}Aufgabe 3}{1}{section.3}% 
\defcounter {refsection}{0}\relax 
\contentsline {subsection}{\numberline {3.1}A)}{1}{subsection.3.1}% 
