# Fdb version 3
["biber main"] 1611697766 "main.bcf" "main.bbl" "main" 1611742663
  "main.bcf" 1611742612 97525 85e36141a4d299cb3b7bd5e92b62b100 "pdflatex"
  (generated)
  "main.bbl"
  "main.blg"
["pdflatex"] 1611742610 "c:/Users/Elias/Documents/LaTeX/Templates/hausarbeit/main.tex" "c:/Users/Elias/Documents/LaTeX/Templates/hausarbeit/main.pdf" "main" 1611742663
  "c:/Users/Elias/Documents/LaTeX/Templates/hausarbeit/main.aux" 1611742612 2347 4266013ad0d3170bfb0abe278823e967 ""
  "c:/Users/Elias/Documents/LaTeX/Templates/hausarbeit/main.tex" 1611742662 577 581849d2447c4fd76a49926f2c89e94c ""
  "c:/texlive/2019/texmf-dist/fonts/enc/dvips/base/8r.enc" 1557309572 4850 80dc9bab7f31fb78a000ccfed0e27cab ""
  "c:/texlive/2019/texmf-dist/fonts/map/fontname/texfonts.map" 1557309927 3332 103109f5612ad95229751940c61aada0 ""
  "c:/texlive/2019/texmf-dist/fonts/tfm/adobe/courier/pcrr8t.tfm" 1557309267 1384 4632f5e54900a7dadbb83f555bc61e56 ""
  "c:/texlive/2019/texmf-dist/fonts/tfm/jknappen/ec/ecrm1200.tfm" 1557309609 3584 f80ddd985bd00e29e9a6047ebd9d4781 ""
  "c:/texlive/2019/texmf-dist/fonts/tfm/public/cm/cmr12.tfm" 1557308775 1288 655e228510b4c2a1abe905c368440826 ""
  "c:/texlive/2019/texmf-dist/fonts/tfm/public/txfonts/rtxb.tfm" 1557312976 1020 c53143d3e3747b5c1149bd9a5ecd7b55 ""
  "c:/texlive/2019/texmf-dist/fonts/tfm/public/txfonts/rtxi.tfm" 1557312976 1048 a97cff5f6b833b712079817ce7a40d4c ""
  "c:/texlive/2019/texmf-dist/fonts/tfm/public/txfonts/rtxptmb.tfm" 1557312976 4572 2c370d27bbb031f7592de9d41dc8cfca ""
  "c:/texlive/2019/texmf-dist/fonts/tfm/public/txfonts/rtxptmr.tfm" 1557312976 4452 0fd0a792eaab7113e4d4f1b941ff0367 ""
  "c:/texlive/2019/texmf-dist/fonts/tfm/public/txfonts/rtxptmri.tfm" 1557312976 4640 ce59980bcbe9e6236fab46d0b5212c7e ""
  "c:/texlive/2019/texmf-dist/fonts/tfm/public/txfonts/rtxr.tfm" 1557312976 1004 c0e991f864f31f017ea4ff9e451b76d4 ""
  "c:/texlive/2019/texmf-dist/fonts/tfm/public/txfonts/rtxsc.tfm" 1557312976 1440 16e7bb6e886bf3c5e8b177915c653b17 ""
  "c:/texlive/2019/texmf-dist/fonts/tfm/public/txfonts/t1xb.tfm" 1557312976 6892 772bf8e6c154137db8568fa8a47a6ceb ""
  "c:/texlive/2019/texmf-dist/fonts/tfm/public/txfonts/t1xi.tfm" 1557312976 6956 cab20301c4a0fe2075f774c8a2433c5d ""
  "c:/texlive/2019/texmf-dist/fonts/tfm/public/txfonts/t1xr.tfm" 1557312976 6716 6d25a377562601272906e3bfe6b2817a ""
  "c:/texlive/2019/texmf-dist/fonts/tfm/public/txfonts/t1xsc.tfm" 1557312976 16708 520af01c295bb6e31a9ec3bddf6d176c ""
  "c:/texlive/2019/texmf-dist/fonts/tfm/public/txfonts/txex.tfm" 1557312976 1080 b674b4ba143004461509a754a0984b67 ""
  "c:/texlive/2019/texmf-dist/fonts/tfm/public/txfonts/txexa.tfm" 1557312976 688 f56006d6e56f46e63d9f63252958b828 ""
  "c:/texlive/2019/texmf-dist/fonts/tfm/public/txfonts/txi.tfm" 1557312976 2584 cf4a6a7c2a518d47468fe29ef0913ba0 ""
  "c:/texlive/2019/texmf-dist/fonts/tfm/public/txfonts/txmi.tfm" 1557312976 1944 f854e259cb2839e49d4aa2949544a6e1 ""
  "c:/texlive/2019/texmf-dist/fonts/tfm/public/txfonts/txmia.tfm" 1557312976 1180 72784d0ee5a983fba99a0986b31b0493 ""
  "c:/texlive/2019/texmf-dist/fonts/tfm/public/txfonts/txr.tfm" 1557312976 2408 aec793a3c45e495f7ad15b227c91f508 ""
  "c:/texlive/2019/texmf-dist/fonts/tfm/public/txfonts/txsy.tfm" 1557312976 1268 1d124f224979493f8fd017a7597ea1cd ""
  "c:/texlive/2019/texmf-dist/fonts/tfm/public/txfonts/txsya.tfm" 1557312976 972 2c9ffac4bbd20f91c01aaef9bf3f8710 ""
  "c:/texlive/2019/texmf-dist/fonts/tfm/public/txfonts/txsyb.tfm" 1557312976 988 098ca7e8cc5647b9ac21b82dbdce1f01 ""
  "c:/texlive/2019/texmf-dist/fonts/tfm/public/txfonts/txsyc.tfm" 1557312976 1084 75e807e9e71f7a312e4e1187dce5e93b ""
  "c:/texlive/2019/texmf-dist/fonts/type1/public/txfonts/rtxr.pfb" 1557312976 6339 e2b78706efdc360ee6aec9b6e20211a7 ""
  "c:/texlive/2019/texmf-dist/fonts/type1/public/txfonts/rtxsc.pfb" 1557312976 11099 83316203930a07cc1ec0d29d0f0dd35c ""
  "c:/texlive/2019/texmf-dist/fonts/type1/urw/times/utmb8a.pfb" 1557312830 44729 fea0975e20ec51c992338362f05f1146 ""
  "c:/texlive/2019/texmf-dist/fonts/type1/urw/times/utmr8a.pfb" 1557312830 46026 687528a208fbfc1f00832bb96cccebbb ""
  "c:/texlive/2019/texmf-dist/fonts/type1/urw/times/utmri8a.pfb" 1557312830 45458 504e2b06fa82109d168c7a0afb09e145 ""
  "c:/texlive/2019/texmf-dist/fonts/vf/public/txfonts/t1xb.vf" 1557312977 2144 bab2875eda5b2344ea7b1db74ccc03a4 ""
  "c:/texlive/2019/texmf-dist/fonts/vf/public/txfonts/t1xi.vf" 1557312977 2120 35084608d79b6b13dd746dfcffe98243 ""
  "c:/texlive/2019/texmf-dist/fonts/vf/public/txfonts/t1xr.vf" 1557312977 2140 99e5b3a34695df6221a167ffa8b498d6 ""
  "c:/texlive/2019/texmf-dist/fonts/vf/public/txfonts/t1xsc.vf" 1557312977 2528 a407e9cb34801878b33f28bc56f40f23 ""
  "c:/texlive/2019/texmf-dist/tex/context/base/mkii/supp-pdf.mkii" 1557311086 71627 94eb9990bed73c364d7f53f960cc8c5b ""
  "c:/texlive/2019/texmf-dist/tex/generic/babel-german/ngerman.ldf" 1557308159 2164 da22692bce498dcc4f70209c7185a346 ""
  "c:/texlive/2019/texmf-dist/tex/generic/babel-german/ngermanb.ldf" 1557308159 7584 40e9a51a28a966f337267407ea4ab873 ""
  "c:/texlive/2019/texmf-dist/tex/generic/babel/babel.def" 1557308139 78303 c54368864528e704f6f347e670e631cd ""
  "c:/texlive/2019/texmf-dist/tex/generic/babel/babel.sty" 1557308139 17694 218403ecedc79eb72e8ecde7bc3b3f87 ""
  "c:/texlive/2019/texmf-dist/tex/generic/babel/switch.def" 1557308141 14454 24b05ffde1fce7ca761904a613e8ce1f ""
  "c:/texlive/2019/texmf-dist/tex/generic/babel/txtbabel.def" 1557308141 7435 ef73091c345c1e2e85b0f9a441eb1f7d ""
  "c:/texlive/2019/texmf-dist/tex/generic/ifxetex/ifxetex.sty" 1557310329 1458 43ab4710dc82f3edeabecd0d099626b2 ""
  "c:/texlive/2019/texmf-dist/tex/generic/oberdiek/etexcmds.sty" 1557311285 7612 729a8cc22a1ee0029997c7f74717ae05 ""
  "c:/texlive/2019/texmf-dist/tex/generic/oberdiek/gettitlestring.sty" 1557311285 8237 3b62ef1f7e2c23a328c814b3893bc11f ""
  "c:/texlive/2019/texmf-dist/tex/generic/oberdiek/hobsub-generic.sty" 1557311285 185392 b99a6d53180e04300c35e18725f31231 ""
  "c:/texlive/2019/texmf-dist/tex/generic/oberdiek/hobsub-hyperref.sty" 1557311285 70864 bcd5b216757bd619ae692a151d90085d ""
  "c:/texlive/2019/texmf-dist/tex/generic/oberdiek/ifluatex.sty" 1557310319 7324 2310d1247db0114eb4726807c8837a0e ""
  "c:/texlive/2019/texmf-dist/tex/generic/oberdiek/ifpdf.sty" 1557311285 1300 96620a7d94bc0ceb261d968770ce8315 ""
  "c:/texlive/2019/texmf-dist/tex/generic/oberdiek/infwarerr.sty" 1557311285 8253 473e0e41f9adadb1977e8631b8f72ea6 ""
  "c:/texlive/2019/texmf-dist/tex/generic/oberdiek/kvsetkeys.sty" 1557311285 14040 ac8866aac45982ac84021584b0abb252 ""
  "c:/texlive/2019/texmf-dist/tex/generic/oberdiek/ltxcmds.sty" 1557311285 18425 5b3c0c59d76fac78978b5558e83c1f36 ""
  "c:/texlive/2019/texmf-dist/tex/generic/oberdiek/pdftexcmds.sty" 1557311285 20457 0d2e642faacbb41c9d72690f8cc529cd ""
  "c:/texlive/2019/texmf-dist/tex/generic/xkeyval/xkeyval.tex" 1557313290 19231 26434a5656c684f5ffb1f26f98006baa ""
  "c:/texlive/2019/texmf-dist/tex/generic/xkeyval/xkvutils.tex" 1557313290 7677 6f5ce7c1124cad7ec57d05b2562bd8fe ""
  "c:/texlive/2019/texmf-dist/tex/latex/adjustbox/adjcalc.sty" 1557307980 5608 e823b3adfbc2ea70e453a21ea6e2ee12 ""
  "c:/texlive/2019/texmf-dist/tex/latex/adjustbox/adjustbox.sty" 1557307980 55974 e90ddd9a6114a7008a6915da904f2847 ""
  "c:/texlive/2019/texmf-dist/tex/latex/adjustbox/tc-pdftex.def" 1557307980 4061 aa67e478bd1a58a42e026c354f10b158 ""
  "c:/texlive/2019/texmf-dist/tex/latex/adjustbox/trimclip.sty" 1557307980 7142 42aaa49a4afcdc52e9d95e3b19f439be ""
  "c:/texlive/2019/texmf-dist/tex/latex/amsmath/amsbsy.sty" 1557308031 2211 ca7ce284ab93c8eecdc6029dc5ccbd73 ""
  "c:/texlive/2019/texmf-dist/tex/latex/amsmath/amsgen.sty" 1557308031 4161 7f6eb9092061a11f87d08ed13515b48d ""
  "c:/texlive/2019/texmf-dist/tex/latex/amsmath/amsmath.sty" 1557308031 85093 77cfa18ddbae4d9b74ade33d843686d3 ""
  "c:/texlive/2019/texmf-dist/tex/latex/amsmath/amsopn.sty" 1557308031 4116 32e6abd27229755a83a8b7f18e583890 ""
  "c:/texlive/2019/texmf-dist/tex/latex/amsmath/amstext.sty" 1557308031 2432 8ff93b1137020e8f21930562a874ae66 ""
  "c:/texlive/2019/texmf-dist/tex/latex/appendix/appendix.sty" 1557308056 8526 d0d9b5e2dd0c996c69c3bd05eb25b943 ""
  "c:/texlive/2019/texmf-dist/tex/latex/base/article.cls" 1557310599 19933 3097d1b31d3c45dc957096f554529032 ""
  "c:/texlive/2019/texmf-dist/tex/latex/base/fontenc.sty" 1557310599 4573 e9e01f5b11821a77b916dad378cb86b8 ""
  "c:/texlive/2019/texmf-dist/tex/latex/base/ifthen.sty" 1557310599 5161 c004ea5a189d4bdcf42e86754ad75a58 ""
  "c:/texlive/2019/texmf-dist/tex/latex/base/inputenc.sty" 1557310599 5052 b64c57f4a38aae0d2745f8298fa50814 ""
  "c:/texlive/2019/texmf-dist/tex/latex/base/size12.clo" 1557310600 8305 6a682ae291edd56e2d7accbf95eca451 ""
  "c:/texlive/2019/texmf-dist/tex/latex/base/t1enc.def" 1557310600 10689 ce0f2353f9a1f42b29f591f3fe8e040a ""
  "c:/texlive/2019/texmf-dist/tex/latex/base/textcomp.sty" 1557310600 16156 a293f9cfd4f8552bb5d1028389f53e72 ""
  "c:/texlive/2019/texmf-dist/tex/latex/base/ts1cmr.fd" 1557310600 2433 cdefd2509a12ba58001f2024f63aae9a ""
  "c:/texlive/2019/texmf-dist/tex/latex/base/ts1enc.def" 1557310600 7769 97b639552068544f7c98d557abb19f41 ""
  "c:/texlive/2019/texmf-dist/tex/latex/base/ts1enc.dfu" 1557310600 4973 923be56c54607ca99f7cc085a8c7e52b ""
  "c:/texlive/2019/texmf-dist/tex/latex/biblatex-apa/apa.bbx" 1557308269 67786 ace028049fe955855fc809691c2f3155 ""
  "c:/texlive/2019/texmf-dist/tex/latex/biblatex-apa/apa.cbx" 1557308269 18303 b5f4c71bd96160a95f46d60c4f04fb76 ""
  "c:/texlive/2019/texmf-dist/tex/latex/biblatex-apa/apa.dbx" 1557308269 2077 26eced52dd77b74dbe381bd68e549658 ""
  "c:/texlive/2019/texmf-dist/tex/latex/biblatex-apa/german-apa.lbx" 1557308269 7466 2422f671c4958e2d7b8335f43136fa7c ""
  "c:/texlive/2019/texmf-dist/tex/latex/biblatex-apa/ngerman-apa.lbx" 1557308269 7470 beded1962fbdb03cf7c9e4d1f34e79be ""
  "c:/texlive/2019/texmf-dist/tex/latex/biblatex/bbx/standard.bbx" 1557308264 24313 ff3a9a84addb7f5de285c708da15a926 ""
  "c:/texlive/2019/texmf-dist/tex/latex/biblatex/biblatex.cfg" 1557308264 69 249fa6df04d948e51b6d5c67bea30c42 ""
  "c:/texlive/2019/texmf-dist/tex/latex/biblatex/biblatex.def" 1557308264 88160 3e5d4380c6193d760acb623119b619af ""
  "c:/texlive/2019/texmf-dist/tex/latex/biblatex/biblatex.sty" 1557308264 472411 c7eee3c619de18fb38cb898ed15ea61d ""
  "c:/texlive/2019/texmf-dist/tex/latex/biblatex/blx-compat.def" 1557308265 13194 9fbd4a8c96337f2861e1135f26105b22 ""
  "c:/texlive/2019/texmf-dist/tex/latex/biblatex/blx-dm.def" 1557308265 30950 d8285648220779301a06160f7b5b9b1b ""
  "c:/texlive/2019/texmf-dist/tex/latex/biblatex/lbx/german.lbx" 1557308265 31969 85ee28750f096a5af49dc49511d7abd9 ""
  "c:/texlive/2019/texmf-dist/tex/latex/biblatex/lbx/ngerman.lbx" 1557308265 520 79db3ad588d8a32d9a5aa90a48bd8364 ""
  "c:/texlive/2019/texmf-dist/tex/latex/blindtext/blindtext.sty" 1557308328 47295 de48b7f8ebf4b54709a2f6b2c7106dd5 ""
  "c:/texlive/2019/texmf-dist/tex/latex/booktabs/booktabs.sty" 1557308348 5869 94335281ffcab47f341cf07ea8220e30 ""
  "c:/texlive/2019/texmf-dist/tex/latex/collectbox/collectbox.sty" 1557308998 9116 495d44b5a3e7be0c46c5d1f053f457f0 ""
  "c:/texlive/2019/texmf-dist/tex/latex/csquotes/csquotes.cfg" 1557309296 7068 06f8d141725d114847527a66439066b6 ""
  "c:/texlive/2019/texmf-dist/tex/latex/csquotes/csquotes.def" 1557309296 19672 064123762b65f5f6167cd01f4155a8c2 ""
  "c:/texlive/2019/texmf-dist/tex/latex/csquotes/csquotes.sty" 1557309296 61418 e956203a0a8d7a811e2100c0ecfdfcac ""
  "c:/texlive/2019/texmf-dist/tex/latex/easy-todo/easy-todo.sty" 1557309589 2520 3efbbdf2635582cab685d108f07cefad ""
  "c:/texlive/2019/texmf-dist/tex/latex/etoolbox/etoolbox.sty" 1557309737 43865 f83cc2fa3767abdb988c7d2cd17c02bf ""
  "c:/texlive/2019/texmf-dist/tex/latex/fancyhdr/fancyhdr.sty" 1557309776 11128 a53805799bebfed6358fc1658a18e41f ""
  "c:/texlive/2019/texmf-dist/tex/latex/fancyvrb/fancyvrb.sty" 1557309784 42733 79eb4d8b9f10bca9c5d3796630226536 ""
  "c:/texlive/2019/texmf-dist/tex/latex/floatflt/floatflt.sty" 1557309901 11060 3ca6099db339c6b0e41b960a230d4bcb ""
  "c:/texlive/2019/texmf-dist/tex/latex/geometry/geometry.sty" 1557310052 41645 0653033a985e06c69a2a9cea9a95e31a ""
  "c:/texlive/2019/texmf-dist/tex/latex/graphics-cfg/color.cfg" 1557310155 1213 620bba36b25224fa9b7e1ccb4ecb76fd ""
  "c:/texlive/2019/texmf-dist/tex/latex/graphics-cfg/graphics.cfg" 1557310155 1224 978390e9c2234eab29404bc21b268d1e ""
  "c:/texlive/2019/texmf-dist/tex/latex/graphics-def/pdftex.def" 1557310156 17334 520b9b85ad8a2a48eda3f643e27a5179 ""
  "c:/texlive/2019/texmf-dist/tex/latex/graphics/color.sty" 1557310152 7028 112f909feb676788e7ea1c5b0b76320f ""
  "c:/texlive/2019/texmf-dist/tex/latex/graphics/graphics.sty" 1557310152 15272 5a97061616e0c8b2aa79c6615ff769f4 ""
  "c:/texlive/2019/texmf-dist/tex/latex/graphics/graphicx.sty" 1557310152 9063 d0a305975932762117cd1f06a582f896 ""
  "c:/texlive/2019/texmf-dist/tex/latex/graphics/keyval.sty" 1557310152 2591 6404d0c7d28505fb38ce0d86c2e28ae7 ""
  "c:/texlive/2019/texmf-dist/tex/latex/graphics/trig.sty" 1557310152 3977 cb9221976ed8a183afad65b59aa8629a ""
  "c:/texlive/2019/texmf-dist/tex/latex/hyperref/hpdftex.def" 1557310271 51744 477aad43ad6a7ba8c462d20c3e0808e0 ""
  "c:/texlive/2019/texmf-dist/tex/latex/hyperref/hyperref.sty" 1557310271 236074 d994150943d35d6af0d586a60cc78dd1 ""
  "c:/texlive/2019/texmf-dist/tex/latex/hyperref/nameref.sty" 1557310271 12949 81e4e808884a8f0e276b69410e234656 ""
  "c:/texlive/2019/texmf-dist/tex/latex/hyperref/pd1enc.def" 1557310271 14098 b4e1ecab4699a0341b8e1349e4c53fb1 ""
  "c:/texlive/2019/texmf-dist/tex/latex/ifoddpage/ifoddpage.sty" 1557310325 2148 0426cd8bb94163c1e23726d0c15e2c21 ""
  "c:/texlive/2019/texmf-dist/tex/latex/isodate/german.idf" 1557310414 5396 d6e24de553680d1d60a3ab59b37e4f0e ""
  "c:/texlive/2019/texmf-dist/tex/latex/isodate/isodate.sty" 1557310414 16412 f6a0d2e7b1a5c8e7e504ce7d8b8b73d9 ""
  "c:/texlive/2019/texmf-dist/tex/latex/latexconfig/epstopdf-sys.cfg" 1557310659 678 4792914a8f45be57bb98413425e4c7af ""
  "c:/texlive/2019/texmf-dist/tex/latex/latexconfig/hyperref.cfg" 1557310659 235 6031e5765137be07eed51a510b2b8fb7 ""
  "c:/texlive/2019/texmf-dist/tex/latex/listings/listings.cfg" 1557310781 1830 8ebf24b6078970a5f7b81814f96ef6bc ""
  "c:/texlive/2019/texmf-dist/tex/latex/listings/listings.sty" 1557310781 80450 ccf6250c881393368e27f23b483782ab ""
  "c:/texlive/2019/texmf-dist/tex/latex/listings/lstmisc.sty" 1557310781 77022 9205b75844150972cc4077e78ec26b25 ""
  "c:/texlive/2019/texmf-dist/tex/latex/logreq/logreq.def" 1557310808 1620 fb1c32b818f2058eca187e5c41dfae77 ""
  "c:/texlive/2019/texmf-dist/tex/latex/logreq/logreq.sty" 1557310808 6187 b27afc771af565d3a9ff1ca7d16d0d46 ""
  "c:/texlive/2019/texmf-dist/tex/latex/mathtools/mathtools.sty" 1557310936 53430 0411f0481da6078e76fd7de46531d2e0 ""
  "c:/texlive/2019/texmf-dist/tex/latex/mathtools/mhsetup.sty" 1557310936 5317 cf75154a8a7e6436f05a5be497f0b05e ""
  "c:/texlive/2019/texmf-dist/tex/latex/microtype/microtype-pdftex.def" 1557311002 48850 54ae402537e77736eecdda92621a7019 ""
  "c:/texlive/2019/texmf-dist/tex/latex/microtype/microtype.cfg" 1557311002 24293 a476ddd756680fbcb9069ebeb6d3924f ""
  "c:/texlive/2019/texmf-dist/tex/latex/microtype/microtype.sty" 1557311002 70989 103a1397bac5d973ce7b0cd08f1b6f15 ""
  "c:/texlive/2019/texmf-dist/tex/latex/microtype/mt-ptm.cfg" 1557311002 12391 cdf0f7aa1c8a3a34b9fbb297c96ea93d ""
  "c:/texlive/2019/texmf-dist/tex/latex/oberdiek/auxhook.sty" 1557311285 3834 4363110eb0ef1eb2b71c8fcbcdb6c357 ""
  "c:/texlive/2019/texmf-dist/tex/latex/oberdiek/epstopdf-base.sty" 1557311285 12095 5337833c991d80788a43d3ce26bd1c46 ""
  "c:/texlive/2019/texmf-dist/tex/latex/oberdiek/grfext.sty" 1557311285 7075 2fe3d848bba95f139de11ded085e74aa ""
  "c:/texlive/2019/texmf-dist/tex/latex/oberdiek/ifdraft.sty" 1557311285 1820 92fbab5fe1d182958d05dc9dc1280a8d ""
  "c:/texlive/2019/texmf-dist/tex/latex/oberdiek/kvoptions.sty" 1557311285 22417 1d9df1eb66848aa31b18a593099cf45c ""
  "c:/texlive/2019/texmf-dist/tex/latex/oberdiek/rerunfilecheck.sty" 1557311285 9581 023642318cef9f4677efe364de1e2a27 ""
  "c:/texlive/2019/texmf-dist/tex/latex/parskip/parskip.sty" 1557311374 4152 3f6e512e6999979e82f39978a3e61b9e ""
  "c:/texlive/2019/texmf-dist/tex/latex/pbox/pbox.sty" 1557311395 2092 683723f035c21ec5b384e5c686c4d6ad ""
  "c:/texlive/2019/texmf-dist/tex/latex/psnfss/t1pcr.fd" 1557311656 798 d5895e9edc628f2be019beb2c0ec66df ""
  "c:/texlive/2019/texmf-dist/tex/latex/setspace/setspace.sty" 1557312256 22913 a27d7908fc6f0385466454a966a316eb ""
  "c:/texlive/2019/texmf-dist/tex/latex/substr/substr.sty" 1557312546 5724 d3505925e87b345f11a5f17d58550dea ""
  "c:/texlive/2019/texmf-dist/tex/latex/tabulary/tabulary.sty" 1557312605 13791 8c83287d79183c3bf58fd70871e8a70b ""
  "c:/texlive/2019/texmf-dist/tex/latex/tocloft/tocloft.sty" 1557312905 35908 cf004ee7afad1af9a1182e95b5c31f8f ""
  "c:/texlive/2019/texmf-dist/tex/latex/tools/array.sty" 1557312917 12527 31ab547f6520657998ecf91709f950ac ""
  "c:/texlive/2019/texmf-dist/tex/latex/tools/calc.sty" 1557312917 10212 357072c1d20578a30d6387d8a22e72ab ""
  "c:/texlive/2019/texmf-dist/tex/latex/tools/xspace.sty" 1557312917 4542 5251001fb2c96205905dbac86c51c5ab ""
  "c:/texlive/2019/texmf-dist/tex/latex/txfonts/omltxmi.fd" 1557312977 492 e7f8afe4428797548d4301de03a1b15f ""
  "c:/texlive/2019/texmf-dist/tex/latex/txfonts/omstxsy.fd" 1557312977 329 6ac7e19535b9f1d64e4d8e3f77dc30a3 ""
  "c:/texlive/2019/texmf-dist/tex/latex/txfonts/omxtxex.fd" 1557312977 312 11fe1916b0a13a81a05234a6fc7f8738 ""
  "c:/texlive/2019/texmf-dist/tex/latex/txfonts/ot1txr.fd" 1557312977 1271 4e3afbd8e832f2f9c7f064894e6e68e4 ""
  "c:/texlive/2019/texmf-dist/tex/latex/txfonts/t1txr.fd" 1557312977 1242 cbf8a0d4f750f9833a0bfb05fb39f1cb ""
  "c:/texlive/2019/texmf-dist/tex/latex/txfonts/txfonts.sty" 1557312977 50381 d367461010070c7a491b1f6979ab2062 ""
  "c:/texlive/2019/texmf-dist/tex/latex/txfonts/utxexa.fd" 1557312977 310 1b00b0b05685b816e4c6caccce437e0d ""
  "c:/texlive/2019/texmf-dist/tex/latex/txfonts/utxmia.fd" 1557312977 334 87436a82076ca2e35cd305f852507afc ""
  "c:/texlive/2019/texmf-dist/tex/latex/txfonts/utxsya.fd" 1557312977 310 cee07e4964749ccbc77d84fc49726a79 ""
  "c:/texlive/2019/texmf-dist/tex/latex/txfonts/utxsyb.fd" 1557312977 310 8c5467c8932c259af51b0f116c9734bd ""
  "c:/texlive/2019/texmf-dist/tex/latex/txfonts/utxsyc.fd" 1557312977 310 4b5d6fe830337242ef847b3bff48ba21 ""
  "c:/texlive/2019/texmf-dist/tex/latex/url/url.sty" 1557313099 12796 8edb7d69a20b857904dd0ea757c14ec9 ""
  "c:/texlive/2019/texmf-dist/tex/latex/varwidth/varwidth.sty" 1557313115 10894 d359a13923460b2a73d4312d613554c8 ""
  "c:/texlive/2019/texmf-dist/tex/latex/xkeyval/xkeyval.sty" 1557313290 4962 9c1069474ff71dbc47d5006555e352d3 ""
  "c:/texlive/2019/texmf-dist/web2c/texmf.cnf" 1557310544 35484 cb1661360667bf4db662a8895053b554 ""
  "c:/texlive/2019/texmf-var/fonts/map/pdftex/updmap/pdftex.map" 1557313403 3307272 092d5240e6c28128f606b622c6c4c981 ""
  "c:/texlive/2019/texmf-var/web2c/pdftex/pdflatex.fmt" 1557313493 4255897 42162c556a1de3a2638ed28a11d3cd30 ""
  "c:/texlive/2019/texmf.cnf" 1557313382 673 4ae7b2f49cee444c5343a45b5d0f169c ""
  "images/logo_hochschule_kempten.png" 1611582904 136320 9d5257cd8b15c242fc1cf2570e4ae6f6 ""
  "main.aux" 1611742612 2347 4266013ad0d3170bfb0abe278823e967 "pdflatex"
  "main.bbl" 1611697767 486 d461c786d5ba60caa26aa3f363275b19 "biber main"
  "main.out" 1611742612 340 f5424ea4d34c8b5d8bbb00e4203acc33 "pdflatex"
  "main.run.xml" 1611742612 2435 d8d2f3cfd56bf5516e481e8485d70fce "pdflatex"
  "main.tex" 1611742662 577 581849d2447c4fd76a49926f2c89e94c ""
  "main.toc" 1611742612 869 ff3175750d50fa3ab05a0812eadca2aa "pdflatex"
  "mcode.sty" 1447274647 11473 e3c3290432e60d7d82bde7534454793e ""
  "settings/endofdocument.tex" 1611615906 802 05c644a22d75b9c91bf416a084563a22 ""
  "settings/packages.tex" 1611616063 1838 fc7e3c9aec2e730c06594d9875af6766 ""
  "settings/page.tex" 1611616063 1643 3c3c156c26267f55bcfd96a7dff72312 ""
  "settings/titlepage.tex" 1611742467 1055 049be6dd5c59a675003b26942228268b ""
  (generated)
  "c:/Users/Elias/Documents/LaTeX/Templates/hausarbeit/main.log"
  "main.pdf"
  "c:/Users/Elias/Documents/LaTeX/Templates/hausarbeit/main.pdf"
  "main.log"
  "main.aux"
  "main.bcf"
  "main.out"
  "main.toc"
  "main.run.xml"
