\relax 
\providecommand\hyper@newdestlabel[2]{}
\providecommand\zref@newlabel[2]{}
\providecommand*\new@tpo@label[2]{}
\providecommand\HyperFirstAtBeginDocument{\AtBeginDocument}
\HyperFirstAtBeginDocument{\ifx\hyper@anchor\@undefined
\global\let\oldcontentsline\contentsline
\gdef\contentsline#1#2#3#4{\oldcontentsline{#1}{#2}{#3}}
\global\let\oldnewlabel\newlabel
\gdef\newlabel#1#2{\newlabelxx{#1}#2}
\gdef\newlabelxx#1#2#3#4#5#6{\oldnewlabel{#1}{{#2}{#3}}}
\AtEndDocument{\ifx\hyper@anchor\@undefined
\let\contentsline\oldcontentsline
\let\newlabel\oldnewlabel
\fi}
\fi}
\global\let\hyper@last\relax 
\gdef\HyperFirstAtBeginDocument#1{#1}
\providecommand\HyField@AuxAddToFields[1]{}
\providecommand\HyField@AuxAddToCoFields[2]{}
\providecommand\BKM@entry[2]{}
\catcode `"\active 
\BKM@entry{id=1,dest={73656374696F6E2E302E31},srcline={38}}{4D617468}
\BKM@entry{id=2,dest={73756273656374696F6E2E302E312E31},srcline={42}}{53696E7573}
\BKM@entry{id=3,dest={73756273656374696F6E2E302E312E32},srcline={51}}{436F73696E7573}
\babel@aux{english}{}
\babel@aux{ngerman}{}
\babel@aux{english}{}
\@writefile{toc}{\contentsline {section}{\numberline {1}Math}{1}{section.0.1}\protected@file@percent }
\@writefile{toc}{\contentsline {subsection}{\numberline {1.1}Sinus}{1}{subsection.0.1.1}\protected@file@percent }
\@writefile{toc}{\contentsline {subsection}{\numberline {1.2}Cosinus}{1}{subsection.0.1.2}\protected@file@percent }
\newlabel{LastPage}{{1}{1}{Math}{subsection.0.1.2}{}}
