\relax 
\providecommand\hyper@newdestlabel[2]{}
\providecommand\zref@newlabel[2]{}
\providecommand*\new@tpo@label[2]{}
\providecommand\HyperFirstAtBeginDocument{\AtBeginDocument}
\HyperFirstAtBeginDocument{\ifx\hyper@anchor\@undefined
\global\let\oldcontentsline\contentsline
\gdef\contentsline#1#2#3#4{\oldcontentsline{#1}{#2}{#3}}
\global\let\oldnewlabel\newlabel
\gdef\newlabel#1#2{\newlabelxx{#1}#2}
\gdef\newlabelxx#1#2#3#4#5#6{\oldnewlabel{#1}{{#2}{#3}}}
\AtEndDocument{\ifx\hyper@anchor\@undefined
\let\contentsline\oldcontentsline
\let\newlabel\oldnewlabel
\fi}
\fi}
\global\let\hyper@last\relax 
\gdef\HyperFirstAtBeginDocument#1{#1}
\providecommand\HyField@AuxAddToFields[1]{}
\providecommand\HyField@AuxAddToCoFields[2]{}
\providecommand\BKM@entry[2]{}
\catcode `"\active 
\BKM@entry{id=1,dest={73656374696F6E2E302E31},srcline={29}}{54656D706F72616C205465737473}
\BKM@entry{id=2,dest={73656374696F6E2E302E32},srcline={38}}{4D617468656D6174696B}
\BKM@entry{id=3,dest={73756273656374696F6E2E302E322E31},srcline={42}}{53696E75732C20436F73696E7573}
\BKM@entry{id=4,dest={73756273656374696F6E2E302E322E32},srcline={52}}{322032204D6174726978}
\BKM@entry{id=5,dest={73756273656374696F6E2E302E322E33},srcline={66}}{466F75726965727472616E73666F726D6174696F6E}
\BKM@entry{id=6,dest={73656374696F6E2E302E33},srcline={76}}{50687973696B}
\BKM@entry{id=7,dest={73756273656374696F6E2E302E332E31},srcline={101}}{45696E6865697470725C33343466697865}
\BKM@entry{id=8,dest={73756273656374696F6E2E302E332E32},srcline={111}}{4D617877656C6C7363686520476C65696368756E67656E205C284E6174757267657365747A655C29}
\BKM@entry{id=9,dest={73656374696F6E2E302E34},srcline={126}}{496E666F726D6174696B}
\BKM@entry{id=10,dest={73756273656374696F6E2E302E342E31},srcline={131}}{632050726F6772616D6D696E67204C616E6775616765}
\BKM@entry{id=11,dest={73656374696F6E2E302E35},srcline={156}}{4368656D6965}
\BKM@entry{id=12,dest={73756273656374696F6E2E302E352E31},srcline={162}}{426C65696261747465726965}
\BKM@entry{id=13,dest={73756273756273656374696F6E2E302E352E312E31},srcline={164}}{5265616B74696F6E20616E2064657220706F7369746976656E20456C656B74726F6465}
\babel@aux{english}{}
\babel@aux{ngerman}{}
\babel@aux{english}{}
\@writefile{toc}{\contentsline {section}{\numberline {1}Temporal Tests}{1}{section.0.1}\protected@file@percent }
\@writefile{toc}{\contentsline {section}{\numberline {2}Mathematik}{1}{section.0.2}\protected@file@percent }
\@writefile{toc}{\contentsline {subsection}{\numberline {2.1}Sinus, Cosinus}{1}{subsection.0.2.1}\protected@file@percent }
\@writefile{toc}{\contentsline {subsection}{\numberline {2.2}$2 \times 2$ Matrix}{1}{subsection.0.2.2}\protected@file@percent }
\@writefile{toc}{\contentsline {subsection}{\numberline {2.3}Fouriertransformation}{1}{subsection.0.2.3}\protected@file@percent }
\@writefile{toc}{\contentsline {section}{\numberline {3}Physik}{1}{section.0.3}\protected@file@percent }
\@writefile{toc}{\contentsline {subsection}{\numberline {3.1}Einheitpr\IeC {\"a}fixe}{1}{subsection.0.3.1}\protected@file@percent }
\@writefile{toc}{\contentsline {subsection}{\numberline {3.2}Maxwellsche Gleichungen (Naturgesetze)}{1}{subsection.0.3.2}\protected@file@percent }
\@writefile{toc}{\contentsline {section}{\numberline {4}Informatik}{1}{section.0.4}\protected@file@percent }
\@writefile{toc}{\contentsline {subsection}{\numberline {4.1}c Programming Language}{1}{subsection.0.4.1}\protected@file@percent }
\@writefile{toc}{\contentsline {section}{\numberline {5}Chemie}{1}{section.0.5}\protected@file@percent }
\@writefile{toc}{\contentsline {subsection}{\numberline {5.1}Bleibatterie}{1}{subsection.0.5.1}\protected@file@percent }
\@writefile{toc}{\contentsline {subsubsection}{\numberline {5.1.1}Reaktion an der positiven Elektrode}{1}{subsubsection.0.5.1.1}\protected@file@percent }
\newlabel{LastPage}{{5}{1}{Chemie}{subsubsection.0.5.1.1}{}}
